c:\doc_ter\cpp\cpp_practices\project1\x64\debug\vc141.pdb
c:\doc_ter\cpp\cpp_practices\project1\x64\debug\vc141.idb
c:\doc_ter\cpp\cpp_practices\project1\x64\debug\source.obj
c:\doc_ter\cpp\cpp_practices\project1\x64\debug\msoftcon.obj
c:\doc_ter\cpp\cpp_practices\x64\debug\horserace.ilk
c:\doc_ter\cpp\cpp_practices\x64\debug\horserace.exe
c:\doc_ter\cpp\cpp_practices\x64\debug\horserace.pdb
c:\doc_ter\cpp\cpp_practices\project1\x64\debug\horserace.tlog\cl.command.1.tlog
c:\doc_ter\cpp\cpp_practices\project1\x64\debug\horserace.tlog\cl.read.1.tlog
c:\doc_ter\cpp\cpp_practices\project1\x64\debug\horserace.tlog\cl.write.1.tlog
c:\doc_ter\cpp\cpp_practices\project1\x64\debug\horserace.tlog\link.command.1.tlog
c:\doc_ter\cpp\cpp_practices\project1\x64\debug\horserace.tlog\link.read.1.tlog
c:\doc_ter\cpp\cpp_practices\project1\x64\debug\horserace.tlog\link.write.1.tlog
